{"frames": [

{
	"filename": "red__0000_idle_1.png",
	"frame": {"x":2376,"y":425,"w":213,"h":428},
	"rotated": false,
	"trimmed": false,
	"spriteSourceSize": {"x":0,"y":0,"w":213,"h":428},
	"sourceSize": {"w":213,"h":428}
},
{
	"filename": "red__0001_idle_2.png",
	"frame": {"x":1353,"y":1288,"w":223,"h":438},
	"rotated": false,
	"trimmed": false,
	"spriteSourceSize": {"x":0,"y":0,"w":223,"h":438},
	"sourceSize": {"w":223,"h":438}
},
{
	"filename": "red__0002_idle_3.png",
	"frame": {"x":1999,"y":1288,"w":235,"h":440},
	"rotated": false,
	"trimmed": false,
	"spriteSourceSize": {"x":0,"y":0,"w":235,"h":440},
	"sourceSize": {"w":235,"h":440}
},
{
	"filename": "red__0003_turn_1.png",
	"frame": {"x":2480,"y":856,"w":213,"h":432},
	"rotated": false,
	"trimmed": false,
	"spriteSourceSize": {"x":0,"y":0,"w":213,"h":432},
	"sourceSize": {"w":213,"h":432}
},
{
	"filename": "red__0004_turn_2.png",
	"frame": {"x":2895,"y":856,"w":205,"h":432},
	"rotated": false,
	"trimmed": false,
	"spriteSourceSize": {"x":0,"y":0,"w":205,"h":432},
	"sourceSize": {"w":205,"h":432}
},
{
	"filename": "red__0005_turn_3.png",
	"frame": {"x":2693,"y":856,"w":202,"h":432},
	"rotated": false,
	"trimmed": false,
	"spriteSourceSize": {"x":0,"y":0,"w":202,"h":432},
	"sourceSize": {"w":202,"h":432}
},
{
	"filename": "red__0006_walk_1.png",
	"frame": {"x":1160,"y":1288,"w":193,"h":436},
	"rotated": false,
	"trimmed": false,
	"spriteSourceSize": {"x":0,"y":0,"w":193,"h":436},
	"sourceSize": {"w":193,"h":436}
},
{
	"filename": "red__0007_walk_2.png",
	"frame": {"x":2428,"y":1288,"w":200,"h":442},
	"rotated": false,
	"trimmed": false,
	"spriteSourceSize": {"x":0,"y":0,"w":200,"h":442},
	"sourceSize": {"w":200,"h":442}
},
{
	"filename": "red__0008_walk_3.png",
	"frame": {"x":1806,"y":1288,"w":193,"h":440},
	"rotated": false,
	"trimmed": false,
	"spriteSourceSize": {"x":0,"y":0,"w":193,"h":440},
	"sourceSize": {"w":193,"h":440}
},
{
	"filename": "red__0009_walk_4.png",
	"frame": {"x":0,"y":856,"w":180,"h":431},
	"rotated": false,
	"trimmed": false,
	"spriteSourceSize": {"x":0,"y":0,"w":180,"h":431},
	"sourceSize": {"w":180,"h":431}
},
{
	"filename": "red__0010_walk_5.png",
	"frame": {"x":623,"y":1288,"w":184,"h":434},
	"rotated": false,
	"trimmed": false,
	"spriteSourceSize": {"x":0,"y":0,"w":184,"h":434},
	"sourceSize": {"w":184,"h":434}
},
{
	"filename": "red__0011_walk_6.png",
	"frame": {"x":807,"y":1288,"w":176,"h":435},
	"rotated": false,
	"trimmed": false,
	"spriteSourceSize": {"x":0,"y":0,"w":176,"h":435},
	"sourceSize": {"w":176,"h":435}
},
{
	"filename": "red__0012_run_1.png",
	"frame": {"x":429,"y":1288,"w":194,"h":434},
	"rotated": false,
	"trimmed": false,
	"spriteSourceSize": {"x":0,"y":0,"w":194,"h":434},
	"sourceSize": {"w":194,"h":434}
},
{
	"filename": "red__0013_run_2.png",
	"frame": {"x":2234,"y":1288,"w":194,"h":441},
	"rotated": false,
	"trimmed": false,
	"spriteSourceSize": {"x":0,"y":0,"w":194,"h":441},
	"sourceSize": {"w":194,"h":441}
},
{
	"filename": "red__0014_run_3.png",
	"frame": {"x":3041,"y":0,"w":217,"h":425},
	"rotated": false,
	"trimmed": false,
	"spriteSourceSize": {"x":0,"y":0,"w":217,"h":425},
	"sourceSize": {"w":217,"h":425}
},
{
	"filename": "red__0015_run_4.png",
	"frame": {"x":983,"y":1288,"w":177,"h":436},
	"rotated": false,
	"trimmed": false,
	"spriteSourceSize": {"x":0,"y":0,"w":177,"h":436},
	"sourceSize": {"w":177,"h":436}
},
{
	"filename": "red__0016_run_5.png",
	"frame": {"x":0,"y":1288,"w":204,"h":432},
	"rotated": false,
	"trimmed": false,
	"spriteSourceSize": {"x":0,"y":0,"w":204,"h":432},
	"sourceSize": {"w":204,"h":432}
},
{
	"filename": "red__0017_run_6.png",
	"frame": {"x":2589,"y":425,"w":218,"h":430},
	"rotated": false,
	"trimmed": false,
	"spriteSourceSize": {"x":0,"y":0,"w":218,"h":430},
	"sourceSize": {"w":218,"h":430}
},
{
	"filename": "red__0018_hurt_1.png",
	"frame": {"x":1941,"y":425,"w":213,"h":428},
	"rotated": false,
	"trimmed": false,
	"spriteSourceSize": {"x":0,"y":0,"w":213,"h":428},
	"sourceSize": {"w":213,"h":428}
},
{
	"filename": "red__0019_hurt_2.png",
	"frame": {"x":2838,"y":0,"w":203,"h":423},
	"rotated": false,
	"trimmed": false,
	"spriteSourceSize": {"x":0,"y":0,"w":203,"h":423},
	"sourceSize": {"w":203,"h":423}
},
{
	"filename": "red__0020_hurt_3.png",
	"frame": {"x":843,"y":856,"w":221,"h":431},
	"rotated": false,
	"trimmed": false,
	"spriteSourceSize": {"x":0,"y":0,"w":221,"h":431},
	"sourceSize": {"w":221,"h":431}
},
{
	"filename": "red__0021_hurt_4.png",
	"frame": {"x":204,"y":1288,"w":225,"h":432},
	"rotated": false,
	"trimmed": false,
	"spriteSourceSize": {"x":0,"y":0,"w":225,"h":432},
	"sourceSize": {"w":225,"h":432}
},
{
	"filename": "red__0022_dead_1.png",
	"frame": {"x":1946,"y":0,"w":347,"h":410},
	"rotated": false,
	"trimmed": false,
	"spriteSourceSize": {"x":0,"y":0,"w":347,"h":410},
	"sourceSize": {"w":347,"h":410}
},
{
	"filename": "red__0023_dead_2.png",
	"frame": {"x":1202,"y":0,"w":413,"h":329},
	"rotated": false,
	"trimmed": false,
	"spriteSourceSize": {"x":0,"y":0,"w":413,"h":329},
	"sourceSize": {"w":413,"h":329}
},
{
	"filename": "red__0024_dead_3.png",
	"frame": {"x":816,"y":0,"w":386,"h":241},
	"rotated": false,
	"trimmed": false,
	"spriteSourceSize": {"x":0,"y":0,"w":386,"h":241},
	"sourceSize": {"w":386,"h":241}
},
{
	"filename": "red__0025_dead_4.png",
	"frame": {"x":0,"y":0,"w":409,"h":186},
	"rotated": false,
	"trimmed": false,
	"spriteSourceSize": {"x":0,"y":0,"w":409,"h":186},
	"sourceSize": {"w":409,"h":186}
},
{
	"filename": "red__0026_dead_5.png",
	"frame": {"x":409,"y":0,"w":407,"h":210},
	"rotated": false,
	"trimmed": false,
	"spriteSourceSize": {"x":0,"y":0,"w":407,"h":210},
	"sourceSize": {"w":407,"h":210}
},
{
	"filename": "red__0027_jump_1.png",
	"frame": {"x":0,"y":425,"w":266,"h":426},
	"rotated": false,
	"trimmed": false,
	"spriteSourceSize": {"x":0,"y":0,"w":266,"h":426},
	"sourceSize": {"w":266,"h":426}
},
{
	"filename": "red__0028_jump_2.png",
	"frame": {"x":2628,"y":1288,"w":235,"h":460},
	"rotated": false,
	"trimmed": false,
	"spriteSourceSize": {"x":0,"y":0,"w":235,"h":460},
	"sourceSize": {"w":235,"h":460}
},
{
	"filename": "red__0029_jump_3.png",
	"frame": {"x":2863,"y":1288,"w":263,"h":462},
	"rotated": false,
	"trimmed": false,
	"spriteSourceSize": {"x":0,"y":0,"w":263,"h":462},
	"sourceSize": {"w":263,"h":462}
},
{
	"filename": "red__0030_jump_4.png",
	"frame": {"x":1615,"y":0,"w":331,"h":372},
	"rotated": false,
	"trimmed": false,
	"spriteSourceSize": {"x":0,"y":0,"w":331,"h":372},
	"sourceSize": {"w":331,"h":372}
},
{
	"filename": "red__0031_attack_1.png",
	"frame": {"x":2154,"y":425,"w":222,"h":428},
	"rotated": false,
	"trimmed": false,
	"spriteSourceSize": {"x":0,"y":0,"w":222,"h":428},
	"sourceSize": {"w":222,"h":428}
},
{
	"filename": "red__0032_attack_2.png",
	"frame": {"x":1660,"y":425,"w":281,"h":428},
	"rotated": false,
	"trimmed": false,
	"spriteSourceSize": {"x":0,"y":0,"w":281,"h":428},
	"sourceSize": {"w":281,"h":428}
},
{
	"filename": "red__0033_attack_3.png",
	"frame": {"x":1000,"y":425,"w":431,"h":428},
	"rotated": false,
	"trimmed": false,
	"spriteSourceSize": {"x":0,"y":0,"w":431,"h":428},
	"sourceSize": {"w":431,"h":428}
},
{
	"filename": "red__0034_attack_4.png",
	"frame": {"x":466,"y":425,"w":534,"h":428},
	"rotated": false,
	"trimmed": false,
	"spriteSourceSize": {"x":0,"y":0,"w":534,"h":428},
	"sourceSize": {"w":534,"h":428}
},
{
	"filename": "red__0035_fire_1.png",
	"frame": {"x":1431,"y":425,"w":229,"h":428},
	"rotated": false,
	"trimmed": false,
	"spriteSourceSize": {"x":0,"y":0,"w":229,"h":428},
	"sourceSize": {"w":229,"h":428}
},
{
	"filename": "red__0036_fire_2.png",
	"frame": {"x":2594,"y":0,"w":244,"h":423},
	"rotated": false,
	"trimmed": false,
	"spriteSourceSize": {"x":0,"y":0,"w":244,"h":423},
	"sourceSize": {"w":244,"h":423}
},
{
	"filename": "red__0037_fire_3.png",
	"frame": {"x":2293,"y":0,"w":301,"h":421},
	"rotated": false,
	"trimmed": false,
	"spriteSourceSize": {"x":0,"y":0,"w":301,"h":421},
	"sourceSize": {"w":301,"h":421}
},
{
	"filename": "red__0038_fire_4.png",
	"frame": {"x":266,"y":425,"w":200,"h":428},
	"rotated": false,
	"trimmed": false,
	"spriteSourceSize": {"x":0,"y":0,"w":200,"h":428},
	"sourceSize": {"w":200,"h":428}
},
{
	"filename": "red__0039_fire_5.png",
	"frame": {"x":1576,"y":1288,"w":230,"h":439},
	"rotated": false,
	"trimmed": false,
	"spriteSourceSize": {"x":0,"y":0,"w":230,"h":439},
	"sourceSize": {"w":230,"h":439}
},
{
	"filename": "red__0040_fire_6.png",
	"frame": {"x":180,"y":856,"w":308,"h":431},
	"rotated": false,
	"trimmed": false,
	"spriteSourceSize": {"x":0,"y":0,"w":308,"h":431},
	"sourceSize": {"w":308,"h":431}
},
{
	"filename": "red__0041_fire_7.png",
	"frame": {"x":488,"y":856,"w":355,"h":431},
	"rotated": false,
	"trimmed": false,
	"spriteSourceSize": {"x":0,"y":0,"w":355,"h":431},
	"sourceSize": {"w":355,"h":431}
},
{
	"filename": "red__0042_fire_8.png",
	"frame": {"x":2807,"y":425,"w":377,"h":431},
	"rotated": false,
	"trimmed": false,
	"spriteSourceSize": {"x":0,"y":0,"w":377,"h":431},
	"sourceSize": {"w":377,"h":431}
},
{
	"filename": "red__0043_fire_9.png",
	"frame": {"x":2026,"y":856,"w":454,"h":431},
	"rotated": false,
	"trimmed": false,
	"spriteSourceSize": {"x":0,"y":0,"w":454,"h":431},
	"sourceSize": {"w":454,"h":431}
},
{
	"filename": "red__0044_fire_10.png",
	"frame": {"x":1550,"y":856,"w":476,"h":431},
	"rotated": false,
	"trimmed": false,
	"spriteSourceSize": {"x":0,"y":0,"w":476,"h":431},
	"sourceSize": {"w":476,"h":431}
},
{
	"filename": "red__0045_fire_11.png",
	"frame": {"x":1064,"y":856,"w":486,"h":431},
	"rotated": false,
	"trimmed": false,
	"spriteSourceSize": {"x":0,"y":0,"w":486,"h":431},
	"sourceSize": {"w":486,"h":431}
}],
"meta": {
	"app": "http://www.codeandweb.com/texturepacker",
	"version": "1.0",
	"image": "red_alien.png",
	"format": "RGBA8888",
	"size": {"w":3258,"h":1750},
	"scale": "1",
	"smartupdate": "$TexturePacker:SmartUpdate:127258df2b318d130421faf173e560a9:2307a1cf6f84844c9bf215df4a551e01:639633b58e440dcafb2e31915600e0d1$"
}
}
